﻿"id","grado","nombre","apellido_paterno","apellido_materno","cumpleanos","cargo","tipo","daua","tel_cel_1","tel_cel_1_whats","tel_cel_2","tel_cel_2_whats","tel_casa","tel_oficina","extension","correo_institucional","correo_personal","comision","protesta","consejero_asociado","activo","foto"
"200914922","M. en C.","Alvaro Osvaldo","Lopez","Garcia","1991-11-17","3","1","1","2223193466","1","","0","2222191549","","","","alvaro.lopez@correo.buap.mx","9","2022-01-17","201040900","1",""
"201040900","M. en C.","Pedro","Paramo","Paramo","1992-10-11","3","2","1","2461113814","1","2228904455","1","2222444727","2222295500","1129","pedro.paramo@correo.buap.mx","pedrito@hotmail.com","4","2022-01-02","200914922","0","a"
"201214833","Lic.","Giovana","Mendez","Gomez","1994-03-22","3","1","1","","0",\N,"0","",\N,\N,"","","1","2022-01-03","201535852","0",""
"201535852","Lic.","Mariana","Campos","Meza","1996-06-02","3","2","1","","0",\N,"0","",\N,\N,"","","1","2022-01-03","201214833","1",""
"200626887","","Felipe","Sanchez","Ritz","1981-04-06","3","1","1","","0",\N,"0","",\N,\N,"","","1","2022-01-10","200914922","1",""
